{
  "build": "h14c3975_4",
  "build_number": 4,
  "channel": "https://repo.anaconda.com/pkgs/main/linux-64",
  "constrains": [],
  "depends": [
    "libgcc-ng >=7.2.0"
  ],
  "extracted_package_dir": "/home/opp/miniconda/3/amd64/pkgs/xz-5.2.4-h14c3975_4",
  "features": "",
  "files": [
    "bin/lzcat",
    "bin/lzcmp",
    "bin/lzdiff",
    "bin/lzegrep",
    "bin/lzfgrep",
    "bin/lzgrep",
    "bin/lzless",
    "bin/lzma",
    "bin/lzmadec",
    "bin/lzmainfo",
    "bin/lzmore",
    "bin/unlzma",
    "bin/unxz",
    "bin/xz",
    "bin/xzcat",
    "bin/xzcmp",
    "bin/xzdec",
    "bin/xzdiff",
    "bin/xzegrep",
    "bin/xzfgrep",
    "bin/xzgrep",
    "bin/xzless",
    "bin/xzmore",
    "include/lzma.h",
    "include/lzma/base.h",
    "include/lzma/bcj.h",
    "include/lzma/block.h",
    "include/lzma/check.h",
    "include/lzma/container.h",
    "include/lzma/delta.h",
    "include/lzma/filter.h",
    "include/lzma/hardware.h",
    "include/lzma/index.h",
    "include/lzma/index_hash.h",
    "include/lzma/lzma12.h",
    "include/lzma/stream_flags.h",
    "include/lzma/version.h",
    "include/lzma/vli.h",
    "lib/liblzma.a",
    "lib/liblzma.la",
    "lib/liblzma.so",
    "lib/liblzma.so.5",
    "lib/liblzma.so.5.2.4",
    "lib/pkgconfig/liblzma.pc",
    "share/doc/xz/AUTHORS",
    "share/doc/xz/COPYING",
    "share/doc/xz/COPYING.GPLv2",
    "share/doc/xz/NEWS",
    "share/doc/xz/README",
    "share/doc/xz/THANKS",
    "share/doc/xz/TODO",
    "share/doc/xz/examples/00_README.txt",
    "share/doc/xz/examples/01_compress_easy.c",
    "share/doc/xz/examples/02_decompress.c",
    "share/doc/xz/examples/03_compress_custom.c",
    "share/doc/xz/examples/04_compress_easy_mt.c",
    "share/doc/xz/examples/Makefile",
    "share/doc/xz/examples_old/xz_pipe_comp.c",
    "share/doc/xz/examples_old/xz_pipe_decomp.c",
    "share/doc/xz/faq.txt",
    "share/doc/xz/history.txt",
    "share/doc/xz/lzma-file-format.txt",
    "share/doc/xz/xz-file-format.txt",
    "share/locale/cs/LC_MESSAGES/xz.mo",
    "share/locale/de/LC_MESSAGES/xz.mo",
    "share/locale/fr/LC_MESSAGES/xz.mo",
    "share/locale/it/LC_MESSAGES/xz.mo",
    "share/locale/pl/LC_MESSAGES/xz.mo",
    "share/locale/vi/LC_MESSAGES/xz.mo",
    "share/man/man1/lzcat.1",
    "share/man/man1/lzcmp.1",
    "share/man/man1/lzdiff.1",
    "share/man/man1/lzegrep.1",
    "share/man/man1/lzfgrep.1",
    "share/man/man1/lzgrep.1",
    "share/man/man1/lzless.1",
    "share/man/man1/lzma.1",
    "share/man/man1/lzmadec.1",
    "share/man/man1/lzmainfo.1",
    "share/man/man1/lzmore.1",
    "share/man/man1/unlzma.1",
    "share/man/man1/unxz.1",
    "share/man/man1/xz.1",
    "share/man/man1/xzcat.1",
    "share/man/man1/xzcmp.1",
    "share/man/man1/xzdec.1",
    "share/man/man1/xzdiff.1",
    "share/man/man1/xzegrep.1",
    "share/man/man1/xzfgrep.1",
    "share/man/man1/xzgrep.1",
    "share/man/man1/xzless.1",
    "share/man/man1/xzmore.1"
  ],
  "fn": "xz-5.2.4-h14c3975_4.conda",
  "legacy_bz2_md5": "496e0e34e1c9710bd307765767318269",
  "legacy_bz2_size": 374500,
  "license": "LGPL-2.1 and GPL-2.0",
  "link": {
    "source": "/home/opp/miniconda/3/amd64/pkgs/xz-5.2.4-h14c3975_4",
    "type": 1
  },
  "md5": "46342a26c3841094f0e60612128eb734",
  "name": "xz",
  "package_tarball_full_path": "/home/opp/miniconda/3/amd64/pkgs/xz-5.2.4-h14c3975_4.conda",
  "paths_data": {
    "paths": [
      {
        "_path": "bin/lzmainfo",
        "file_mode": "binary",
        "path_type": "hardlink",
        "prefix_placeholder": "/tmp/build/80754af9/xz_1526498705795/_h_env_placehold_placehold_placehold_placehold_placehold_placehold_placehold_placehold_placehold_placehold_placehold_placehold_placehold_placehold_placehold_placehold_placehold_placehold_placehold_placehold_placehold_p",
        "sha256": "b0dc43c3caa40f529fa0783f3760377db307110afbc997e10c9439878d3342db",
        "sha256_in_prefix": "3e27433fdc90acc9d677946e370ceaaba8d425556dc974b42b7784c8890818f7",
        "size_in_bytes": 16656
      },
      {
        "_path": "bin/xz",
        "file_mode": "binary",
        "path_type": "hardlink",
        "prefix_placeholder": "/tmp/build/80754af9/xz_1526498705795/_h_env_placehold_placehold_placehold_placehold_placehold_placehold_placehold_placehold_placehold_placehold_placehold_placehold_placehold_placehold_placehold_placehold_placehold_placehold_placehold_placehold_placehold_p",
        "sha256": "2dd2b8ac7af52a454ad0e310c46951dc449a2a317c31a1e4070b3143353da8eb",
        "sha256_in_prefix": "4362b85d003262130372d079a5a26d6de71e57cc63e4e4e423ca7a88094aea92",
        "size_in_bytes": 99208
      },
      {
        "_path": "lib/liblzma.la",
        "file_mode": "text",
        "path_type": "hardlink",
        "prefix_placeholder": "/opt/anaconda1anaconda2anaconda3",
        "sha256": "ba8041a2b2d992b72946a0228827a33ce9e3632f17c6ccfd0d85923a9c773666",
        "sha256_in_prefix": "7edb28880d1e1945bc7adf2d0fc3a968cf6baa313cb1ebdb3894846bdea9ad52",
        "size_in_bytes": 1005
      },
      {
        "_path": "lib/pkgconfig/liblzma.pc",
        "file_mode": "text",
        "path_type": "hardlink",
        "prefix_placeholder": "/opt/anaconda1anaconda2anaconda3",
        "sha256": "bc55f027b9eb3c99230a15a957b7d3e6cdff7c5c496a686a020ca4e36e6af9e4",
        "sha256_in_prefix": "f1aa52faccbbe4cc9a522d672252a11f6299320826f8ebd8874b0c71cf1f15a3",
        "size_in_bytes": 499
      }
    ],
    "paths_version": 1
  },
  "requested_spec": "xz==5.2.4=h14c3975_4",
  "sha256": "c057d600f56d9448644eeeba8c96832befe8fd96fc7dbc7507eabf7c16ba5b8c",
  "size": 290008,
  "subdir": "linux-64",
  "timestamp": 1526499283093,
  "track_features": "",
  "url": "https://repo.anaconda.com/pkgs/main/linux-64/xz-5.2.4-h14c3975_4.conda",
  "version": "5.2.4"
}