{
  "arch": "x86_64",
  "build": "py37h673bf1a_2",
  "build_number": 2,
  "channel": "https://conda.anaconda.org/conda-forge/linux-64",
  "constrains": [],
  "depends": [
    "geos >=3.7.1,<3.7.2.0a0",
    "libgcc-ng >=7.3.0",
    "libstdcxx-ng >=7.3.0",
    "matplotlib >=1.0.0",
    "numpy >=1.9.3,<2.0a0",
    "pyproj >=1.9.3,<2",
    "pyshp >=1.2.0",
    "python >=3.7,<3.8.0a0",
    "six"
  ],
  "extracted_package_dir": "/home/opp/miniconda/3/amd64/pkgs/basemap-1.2.0-py37h673bf1a_2",
  "features": "",
  "files": [
    "lib/python3.7/site-packages/_geoslib.cpython-37m-x86_64-linux-gnu.so",
    "lib/python3.7/site-packages/basemap-1.2.0-py3.7-nspkg.pth",
    "lib/python3.7/site-packages/basemap-1.2.0-py3.7.egg-info/PKG-INFO",
    "lib/python3.7/site-packages/basemap-1.2.0-py3.7.egg-info/SOURCES.txt",
    "lib/python3.7/site-packages/basemap-1.2.0-py3.7.egg-info/dependency_links.txt",
    "lib/python3.7/site-packages/basemap-1.2.0-py3.7.egg-info/installed-files.txt",
    "lib/python3.7/site-packages/basemap-1.2.0-py3.7.egg-info/namespace_packages.txt",
    "lib/python3.7/site-packages/basemap-1.2.0-py3.7.egg-info/requires.txt",
    "lib/python3.7/site-packages/basemap-1.2.0-py3.7.egg-info/top_level.txt",
    "lib/python3.7/site-packages/mpl_toolkits/basemap/__init__.py",
    "lib/python3.7/site-packages/mpl_toolkits/basemap/__pycache__/__init__.cpython-37.pyc",
    "lib/python3.7/site-packages/mpl_toolkits/basemap/__pycache__/cm.cpython-37.pyc",
    "lib/python3.7/site-packages/mpl_toolkits/basemap/__pycache__/diagnostic.cpython-37.pyc",
    "lib/python3.7/site-packages/mpl_toolkits/basemap/__pycache__/proj.cpython-37.pyc",
    "lib/python3.7/site-packages/mpl_toolkits/basemap/__pycache__/solar.cpython-37.pyc",
    "lib/python3.7/site-packages/mpl_toolkits/basemap/__pycache__/test.cpython-37.pyc",
    "lib/python3.7/site-packages/mpl_toolkits/basemap/cm.py",
    "lib/python3.7/site-packages/mpl_toolkits/basemap/diagnostic.py",
    "lib/python3.7/site-packages/mpl_toolkits/basemap/proj.py",
    "lib/python3.7/site-packages/mpl_toolkits/basemap/solar.py",
    "lib/python3.7/site-packages/mpl_toolkits/basemap/test.py",
    "share/basemap/bmng.jpg",
    "share/basemap/countries_c.dat",
    "share/basemap/countries_l.dat",
    "share/basemap/countriesmeta_c.dat",
    "share/basemap/countriesmeta_l.dat",
    "share/basemap/etopo1.jpg",
    "share/basemap/gshhs_c.dat",
    "share/basemap/gshhs_l.dat",
    "share/basemap/gshhsmeta_c.dat",
    "share/basemap/gshhsmeta_l.dat",
    "share/basemap/lsmask_1.25min_c.bin",
    "share/basemap/lsmask_1.25min_f.bin",
    "share/basemap/lsmask_1.25min_h.bin",
    "share/basemap/lsmask_1.25min_i.bin",
    "share/basemap/lsmask_1.25min_l.bin",
    "share/basemap/lsmask_10min_c.bin",
    "share/basemap/lsmask_10min_f.bin",
    "share/basemap/lsmask_10min_h.bin",
    "share/basemap/lsmask_10min_i.bin",
    "share/basemap/lsmask_10min_l.bin",
    "share/basemap/lsmask_2.5min_c.bin",
    "share/basemap/lsmask_2.5min_f.bin",
    "share/basemap/lsmask_2.5min_h.bin",
    "share/basemap/lsmask_2.5min_i.bin",
    "share/basemap/lsmask_2.5min_l.bin",
    "share/basemap/lsmask_5min_c.bin",
    "share/basemap/lsmask_5min_f.bin",
    "share/basemap/lsmask_5min_h.bin",
    "share/basemap/lsmask_5min_i.bin",
    "share/basemap/lsmask_5min_l.bin",
    "share/basemap/rivers_c.dat",
    "share/basemap/rivers_l.dat",
    "share/basemap/riversmeta_c.dat",
    "share/basemap/riversmeta_l.dat",
    "share/basemap/shadedrelief.jpg",
    "share/basemap/states_c.dat",
    "share/basemap/states_l.dat",
    "share/basemap/statesmeta_c.dat",
    "share/basemap/statesmeta_l.dat"
  ],
  "fn": "basemap-1.2.0-py37h673bf1a_2.tar.bz2",
  "license": "MIT",
  "link": {
    "source": "/home/opp/miniconda/3/amd64/pkgs/basemap-1.2.0-py37h673bf1a_2",
    "type": 1
  },
  "md5": "ff00564c223bab10575fab36123936af",
  "name": "basemap",
  "package_tarball_full_path": "/home/opp/miniconda/3/amd64/pkgs/basemap-1.2.0-py37h673bf1a_2.tar.bz2",
  "paths_data": {
    "paths": [
      {
        "_path": "lib/python3.7/site-packages/_geoslib.cpython-37m-x86_64-linux-gnu.so",
        "path_type": "hardlink",
        "sha256": "4a8a8883a3d4946835b126586d752b27dae8bbf2f2081a0a0737d408ccc62479",
        "sha256_in_prefix": "4a8a8883a3d4946835b126586d752b27dae8bbf2f2081a0a0737d408ccc62479",
        "size_in_bytes": 94640
      },
      {
        "_path": "lib/python3.7/site-packages/basemap-1.2.0-py3.7-nspkg.pth",
        "path_type": "hardlink",
        "sha256": "1603bfdee834ef511710a4fc9a038f054872aecc0fb4f0988cea540b26aeed45",
        "sha256_in_prefix": "1603bfdee834ef511710a4fc9a038f054872aecc0fb4f0988cea540b26aeed45",
        "size_in_bytes": 569
      },
      {
        "_path": "lib/python3.7/site-packages/basemap-1.2.0-py3.7.egg-info/PKG-INFO",
        "path_type": "hardlink",
        "sha256": "2d3196d8a2bf793aae0aeabe2062e1464c4cf3a64166b61bad19cea48ea4abf5",
        "sha256_in_prefix": "2d3196d8a2bf793aae0aeabe2062e1464c4cf3a64166b61bad19cea48ea4abf5",
        "size_in_bytes": 1150
      },
      {
        "_path": "lib/python3.7/site-packages/basemap-1.2.0-py3.7.egg-info/SOURCES.txt",
        "path_type": "hardlink",
        "sha256": "e781f73586af22713b0645a7f3c28569694503674ed4c01b621e47b58b7adf92",
        "sha256_in_prefix": "e781f73586af22713b0645a7f3c28569694503674ed4c01b621e47b58b7adf92",
        "size_in_bytes": 8141
      },
      {
        "_path": "lib/python3.7/site-packages/basemap-1.2.0-py3.7.egg-info/dependency_links.txt",
        "path_type": "hardlink",
        "sha256": "01ba4719c80b6fe911b091a7c05124b64eeece964e09c058ef8f9805daca546b",
        "sha256_in_prefix": "01ba4719c80b6fe911b091a7c05124b64eeece964e09c058ef8f9805daca546b",
        "size_in_bytes": 1
      },
      {
        "_path": "lib/python3.7/site-packages/basemap-1.2.0-py3.7.egg-info/installed-files.txt",
        "path_type": "hardlink",
        "sha256": "72993281c68e0db0f6dcc041823d0e68ce45db02b15a53cc5c05b9e46f4555b6",
        "sha256_in_prefix": "72993281c68e0db0f6dcc041823d0e68ce45db02b15a53cc5c05b9e46f4555b6",
        "size_in_bytes": 3765
      },
      {
        "_path": "lib/python3.7/site-packages/basemap-1.2.0-py3.7.egg-info/namespace_packages.txt",
        "path_type": "hardlink",
        "sha256": "0363c7160f4d298394e29110d61f7b53441dfab07eeb95b7e17a82fb9e9937d8",
        "sha256_in_prefix": "0363c7160f4d298394e29110d61f7b53441dfab07eeb95b7e17a82fb9e9937d8",
        "size_in_bytes": 13
      },
      {
        "_path": "lib/python3.7/site-packages/basemap-1.2.0-py3.7.egg-info/requires.txt",
        "path_type": "hardlink",
        "sha256": "459e03f1aa2fe2782643a38561cb1c73a08d00314155f225ff5458f927b09022",
        "sha256_in_prefix": "459e03f1aa2fe2782643a38561cb1c73a08d00314155f225ff5458f927b09022",
        "size_in_bytes": 62
      },
      {
        "_path": "lib/python3.7/site-packages/basemap-1.2.0-py3.7.egg-info/top_level.txt",
        "path_type": "hardlink",
        "sha256": "6632fb5a20a69521dc27f4a36164737a31e632ba498110d0472dc4b746eeeba6",
        "sha256_in_prefix": "6632fb5a20a69521dc27f4a36164737a31e632ba498110d0472dc4b746eeeba6",
        "size_in_bytes": 22
      },
      {
        "_path": "lib/python3.7/site-packages/mpl_toolkits/basemap/__init__.py",
        "path_type": "hardlink",
        "sha256": "6914b842938b7db7b97f407f9c59304f9874bea4e6f8ba6ee0c32880e36f5139",
        "sha256_in_prefix": "6914b842938b7db7b97f407f9c59304f9874bea4e6f8ba6ee0c32880e36f5139",
        "size_in_bytes": 252492
      },
      {
        "_path": "lib/python3.7/site-packages/mpl_toolkits/basemap/__pycache__/__init__.cpython-37.pyc",
        "path_type": "hardlink",
        "sha256": "598fd92689a18bfaa190d2469691aa9bfbf5f1b8757af748664db7fd70246dfb",
        "sha256_in_prefix": "598fd92689a18bfaa190d2469691aa9bfbf5f1b8757af748664db7fd70246dfb",
        "size_in_bytes": 157564
      },
      {
        "_path": "lib/python3.7/site-packages/mpl_toolkits/basemap/__pycache__/cm.cpython-37.pyc",
        "path_type": "hardlink",
        "sha256": "6731ea4c0b6453c83e9a3d339faa8d5f2af20281c657f1b3ebb0fb9f3067af53",
        "sha256_in_prefix": "6731ea4c0b6453c83e9a3d339faa8d5f2af20281c657f1b3ebb0fb9f3067af53",
        "size_in_bytes": 24998
      },
      {
        "_path": "lib/python3.7/site-packages/mpl_toolkits/basemap/__pycache__/diagnostic.cpython-37.pyc",
        "path_type": "hardlink",
        "sha256": "2ed351a4156ce971b0305a3fd464bca262524fc6b6070e9e06031bc6e802f5bf",
        "sha256_in_prefix": "2ed351a4156ce971b0305a3fd464bca262524fc6b6070e9e06031bc6e802f5bf",
        "size_in_bytes": 3001
      },
      {
        "_path": "lib/python3.7/site-packages/mpl_toolkits/basemap/__pycache__/proj.cpython-37.pyc",
        "path_type": "hardlink",
        "sha256": "2d22912e5b07c5d9395625b18f1da7a0692ea2a40920c5154343edc61a72a57b",
        "sha256_in_prefix": "2d22912e5b07c5d9395625b18f1da7a0692ea2a40920c5154343edc61a72a57b",
        "size_in_bytes": 10093
      },
      {
        "_path": "lib/python3.7/site-packages/mpl_toolkits/basemap/__pycache__/solar.cpython-37.pyc",
        "path_type": "hardlink",
        "sha256": "dfc87e4f1f9012073ebcfa69898cfe678abe1bcb4ae30e154003f02bd191dd22",
        "sha256_in_prefix": "dfc87e4f1f9012073ebcfa69898cfe678abe1bcb4ae30e154003f02bd191dd22",
        "size_in_bytes": 3766
      },
      {
        "_path": "lib/python3.7/site-packages/mpl_toolkits/basemap/__pycache__/test.cpython-37.pyc",
        "path_type": "hardlink",
        "sha256": "1e76c0ba006329c71618b18c4da6e2bf343b18bbc10d8372314aeacf3994c0d7",
        "sha256_in_prefix": "1e76c0ba006329c71618b18c4da6e2bf343b18bbc10d8372314aeacf3994c0d7",
        "size_in_bytes": 10440
      },
      {
        "_path": "lib/python3.7/site-packages/mpl_toolkits/basemap/cm.py",
        "path_type": "hardlink",
        "sha256": "fb11eb6c798da9d0ddf4a4b81c8e24eea64b20f2379d6a6542077c6c7d5cc017",
        "sha256_in_prefix": "fb11eb6c798da9d0ddf4a4b81c8e24eea64b20f2379d6a6542077c6c7d5cc017",
        "size_in_bytes": 40170
      },
      {
        "_path": "lib/python3.7/site-packages/mpl_toolkits/basemap/diagnostic.py",
        "path_type": "hardlink",
        "sha256": "a77df75f942186095d73818ce0c5b27ef4daaa78acbbecb16c14e2505f3844f9",
        "sha256_in_prefix": "a77df75f942186095d73818ce0c5b27ef4daaa78acbbecb16c14e2505f3844f9",
        "size_in_bytes": 4026
      },
      {
        "_path": "lib/python3.7/site-packages/mpl_toolkits/basemap/proj.py",
        "path_type": "hardlink",
        "sha256": "842646412d3ff61748577bd3eb1d24fcc6178aac934a00a48c9579fa6b8d83d1",
        "sha256_in_prefix": "842646412d3ff61748577bd3eb1d24fcc6178aac934a00a48c9579fa6b8d83d1",
        "size_in_bytes": 17877
      },
      {
        "_path": "lib/python3.7/site-packages/mpl_toolkits/basemap/solar.py",
        "path_type": "hardlink",
        "sha256": "278bedc588a667733054e1a734d0067acaba344cd75f4456fbbf1e0241ea1d86",
        "sha256_in_prefix": "278bedc588a667733054e1a734d0067acaba344cd75f4456fbbf1e0241ea1d86",
        "size_in_bytes": 4834
      },
      {
        "_path": "lib/python3.7/site-packages/mpl_toolkits/basemap/test.py",
        "path_type": "hardlink",
        "sha256": "efef9c60e2ebc75bab76e695ecb562be271a0ace586b52ff25b6db753aada16a",
        "sha256_in_prefix": "efef9c60e2ebc75bab76e695ecb562be271a0ace586b52ff25b6db753aada16a",
        "size_in_bytes": 9871
      },
      {
        "_path": "share/basemap/bmng.jpg",
        "path_type": "hardlink",
        "sha256": "10f5389b365d7ece89f68a73ce5653fb5692145fde181fc64596d0d87cb89bb8",
        "sha256_in_prefix": "10f5389b365d7ece89f68a73ce5653fb5692145fde181fc64596d0d87cb89bb8",
        "size_in_bytes": 2311548
      },
      {
        "_path": "share/basemap/countries_c.dat",
        "path_type": "hardlink",
        "sha256": "aa3c657400f542bd5fae45c7461eac9b09e914061401bbbeb6fd13567347f20f",
        "sha256_in_prefix": "aa3c657400f542bd5fae45c7461eac9b09e914061401bbbeb6fd13567347f20f",
        "size_in_bytes": 168360
      },
      {
        "_path": "share/basemap/countries_l.dat",
        "path_type": "hardlink",
        "sha256": "f123992555cacd5013035a1092bd1518a04eb72174686914197514b52cd34de6",
        "sha256_in_prefix": "f123992555cacd5013035a1092bd1518a04eb72174686914197514b52cd34de6",
        "size_in_bytes": 248400
      },
      {
        "_path": "share/basemap/countriesmeta_c.dat",
        "path_type": "hardlink",
        "sha256": "0dc3a50379e7496225b4c909c6287c03efcd0e981e9573de91594fbd47f4d669",
        "sha256_in_prefix": "0dc3a50379e7496225b4c909c6287c03efcd0e981e9573de91594fbd47f4d669",
        "size_in_bytes": 19322
      },
      {
        "_path": "share/basemap/countriesmeta_l.dat",
        "path_type": "hardlink",
        "sha256": "403f7f4a47c0cb5d3ec023038703f46efc9078fd9b378482c285be2cc53d2668",
        "sha256_in_prefix": "403f7f4a47c0cb5d3ec023038703f46efc9078fd9b378482c285be2cc53d2668",
        "size_in_bytes": 19660
      },
      {
        "_path": "share/basemap/etopo1.jpg",
        "path_type": "hardlink",
        "sha256": "ddb439e1e7b4975d5ee904d89a7c4a8e676d680809b5fb03996976154195de22",
        "sha256_in_prefix": "ddb439e1e7b4975d5ee904d89a7c4a8e676d680809b5fb03996976154195de22",
        "size_in_bytes": 1340111
      },
      {
        "_path": "share/basemap/gshhs_c.dat",
        "path_type": "hardlink",
        "sha256": "8425aa33bc69addec2aeb116ccb19744c6dd59b40f843a4c5dc53711feb5f4d8",
        "sha256_in_prefix": "8425aa33bc69addec2aeb116ccb19744c6dd59b40f843a4c5dc53711feb5f4d8",
        "size_in_bytes": 100808
      },
      {
        "_path": "share/basemap/gshhs_l.dat",
        "path_type": "hardlink",
        "sha256": "2d27087de6a6c27b07063983fdf23b3cc2f374165c5da204d1d413991f9f4f2c",
        "sha256_in_prefix": "2d27087de6a6c27b07063983fdf23b3cc2f374165c5da204d1d413991f9f4f2c",
        "size_in_bytes": 719016
      },
      {
        "_path": "share/basemap/gshhsmeta_c.dat",
        "path_type": "hardlink",
        "sha256": "7ba4c745c9e832c31cd33639fb851d3d930bdc29b548bef888de6f6d7dca2f6c",
        "sha256_in_prefix": "7ba4c745c9e832c31cd33639fb851d3d930bdc29b548bef888de6f6d7dca2f6c",
        "size_in_bytes": 90832
      },
      {
        "_path": "share/basemap/gshhsmeta_l.dat",
        "path_type": "hardlink",
        "sha256": "6e87f1a397cbb5b3edda1baaaf4dfbeef43b1d210fc2a384433cb336bcb863b0",
        "sha256_in_prefix": "6e87f1a397cbb5b3edda1baaaf4dfbeef43b1d210fc2a384433cb336bcb863b0",
        "size_in_bytes": 562915
      },
      {
        "_path": "share/basemap/lsmask_1.25min_c.bin",
        "path_type": "hardlink",
        "sha256": "42cd4758cbd1012d5bcc1c6decd92562da5dd1818bc279af7c7b4aaa6d8072ae",
        "sha256_in_prefix": "42cd4758cbd1012d5bcc1c6decd92562da5dd1818bc279af7c7b4aaa6d8072ae",
        "size_in_bytes": 347295
      },
      {
        "_path": "share/basemap/lsmask_1.25min_f.bin",
        "path_type": "hardlink",
        "sha256": "8545dfd7fd1a07d89db7cf9a36bba108042cd68c1806e6aebf0ec987d921df75",
        "sha256_in_prefix": "8545dfd7fd1a07d89db7cf9a36bba108042cd68c1806e6aebf0ec987d921df75",
        "size_in_bytes": 684487
      },
      {
        "_path": "share/basemap/lsmask_1.25min_h.bin",
        "path_type": "hardlink",
        "sha256": "6a76e80a60865d4493ac39c8e012ebf16c8143d43bdada9f1d0a2f5453e029ef",
        "sha256_in_prefix": "6a76e80a60865d4493ac39c8e012ebf16c8143d43bdada9f1d0a2f5453e029ef",
        "size_in_bytes": 658450
      },
      {
        "_path": "share/basemap/lsmask_1.25min_i.bin",
        "path_type": "hardlink",
        "sha256": "f4fde24bc0b6012f5cadfb0c8107530f70a1fa78bdd2f46fd2c4a08c0afdd2a7",
        "sha256_in_prefix": "f4fde24bc0b6012f5cadfb0c8107530f70a1fa78bdd2f46fd2c4a08c0afdd2a7",
        "size_in_bytes": 582277
      },
      {
        "_path": "share/basemap/lsmask_1.25min_l.bin",
        "path_type": "hardlink",
        "sha256": "33ac3904257f6c2d967584209c2ce648a963e6c6b081e4f117d20d9d7bd4bb74",
        "sha256_in_prefix": "33ac3904257f6c2d967584209c2ce648a963e6c6b081e4f117d20d9d7bd4bb74",
        "size_in_bytes": 458273
      },
      {
        "_path": "share/basemap/lsmask_10min_c.bin",
        "path_type": "hardlink",
        "sha256": "b4905990479daaa9ba10f69b101ebb6ccb9580ab470a7ca836a49acac7727d93",
        "sha256_in_prefix": "b4905990479daaa9ba10f69b101ebb6ccb9580ab470a7ca836a49acac7727d93",
        "size_in_bytes": 20781
      },
      {
        "_path": "share/basemap/lsmask_10min_f.bin",
        "path_type": "hardlink",
        "sha256": "eb805e9ccb9d037dabfc502d9b166e0800ce61bb6b2e8778eb8b3b0000a37a2f",
        "sha256_in_prefix": "eb805e9ccb9d037dabfc502d9b166e0800ce61bb6b2e8778eb8b3b0000a37a2f",
        "size_in_bytes": 31804
      },
      {
        "_path": "share/basemap/lsmask_10min_h.bin",
        "path_type": "hardlink",
        "sha256": "96ddb0b317acdce0ab1f0b5950871be983aa00590210f2cbbe32cb69781d1d32",
        "sha256_in_prefix": "96ddb0b317acdce0ab1f0b5950871be983aa00590210f2cbbe32cb69781d1d32",
        "size_in_bytes": 31614
      },
      {
        "_path": "share/basemap/lsmask_10min_i.bin",
        "path_type": "hardlink",
        "sha256": "0de3dd214d45b4b0e9369a0808f605c1445489389b83fae77a7e5efacb0fed06",
        "sha256_in_prefix": "0de3dd214d45b4b0e9369a0808f605c1445489389b83fae77a7e5efacb0fed06",
        "size_in_bytes": 30042
      },
      {
        "_path": "share/basemap/lsmask_10min_l.bin",
        "path_type": "hardlink",
        "sha256": "088fbc5233226c06782670e31dc1876c20159461635df2664708b577e50f2c87",
        "sha256_in_prefix": "088fbc5233226c06782670e31dc1876c20159461635df2664708b577e50f2c87",
        "size_in_bytes": 25901
      },
      {
        "_path": "share/basemap/lsmask_2.5min_c.bin",
        "path_type": "hardlink",
        "sha256": "45a35337ef10441448ec1a8341f24735f1a217c1d83dae1599af665fd5e4fca7",
        "sha256_in_prefix": "45a35337ef10441448ec1a8341f24735f1a217c1d83dae1599af665fd5e4fca7",
        "size_in_bytes": 129142
      },
      {
        "_path": "share/basemap/lsmask_2.5min_f.bin",
        "path_type": "hardlink",
        "sha256": "09bdcf4f89e5168b9529e11b65dd749e21c3cd34aa9dd87195b7bf1146702614",
        "sha256_in_prefix": "09bdcf4f89e5168b9529e11b65dd749e21c3cd34aa9dd87195b7bf1146702614",
        "size_in_bytes": 248126
      },
      {
        "_path": "share/basemap/lsmask_2.5min_h.bin",
        "path_type": "hardlink",
        "sha256": "7376001d45d72a0fafe8ef8a88579e07ec3f741990df962449b72495964a9fc6",
        "sha256_in_prefix": "7376001d45d72a0fafe8ef8a88579e07ec3f741990df962449b72495964a9fc6",
        "size_in_bytes": 242112
      },
      {
        "_path": "share/basemap/lsmask_2.5min_i.bin",
        "path_type": "hardlink",
        "sha256": "86c7d4e62fe5e7cf5a520a3cdd9226bee1d593633f565b75766436c93d7b2784",
        "sha256_in_prefix": "86c7d4e62fe5e7cf5a520a3cdd9226bee1d593633f565b75766436c93d7b2784",
        "size_in_bytes": 218313
      },
      {
        "_path": "share/basemap/lsmask_2.5min_l.bin",
        "path_type": "hardlink",
        "sha256": "ae13d5db650f11445db4e2d5c415cdd40a3e720ece80173b01ebee1b10e74080",
        "sha256_in_prefix": "ae13d5db650f11445db4e2d5c415cdd40a3e720ece80173b01ebee1b10e74080",
        "size_in_bytes": 174340
      },
      {
        "_path": "share/basemap/lsmask_5min_c.bin",
        "path_type": "hardlink",
        "sha256": "d8396f7cc95cd7713c66009c539aeebbce71b93f62667e2cf291ccd84b1ef8ac",
        "sha256_in_prefix": "d8396f7cc95cd7713c66009c539aeebbce71b93f62667e2cf291ccd84b1ef8ac",
        "size_in_bytes": 50263
      },
      {
        "_path": "share/basemap/lsmask_5min_f.bin",
        "path_type": "hardlink",
        "sha256": "edd043fe6fbd9f614a6db6af46f04b00966b75bad5c991615f562a686dc51bb4",
        "sha256_in_prefix": "edd043fe6fbd9f614a6db6af46f04b00966b75bad5c991615f562a686dc51bb4",
        "size_in_bytes": 87517
      },
      {
        "_path": "share/basemap/lsmask_5min_h.bin",
        "path_type": "hardlink",
        "sha256": "0afef6e03454ac1e4a989cdd848fde4ee722e9f17d35fa6aeed5c9f887be11d0",
        "sha256_in_prefix": "0afef6e03454ac1e4a989cdd848fde4ee722e9f17d35fa6aeed5c9f887be11d0",
        "size_in_bytes": 86338
      },
      {
        "_path": "share/basemap/lsmask_5min_i.bin",
        "path_type": "hardlink",
        "sha256": "729cff92e8ed1ae2d1df43b9d2bd99a542cc782068ec94b3d2c5fc774ae3b5a1",
        "sha256_in_prefix": "729cff92e8ed1ae2d1df43b9d2bd99a542cc782068ec94b3d2c5fc774ae3b5a1",
        "size_in_bytes": 79853
      },
      {
        "_path": "share/basemap/lsmask_5min_l.bin",
        "path_type": "hardlink",
        "sha256": "260dcd39405e2f38cc30f254673f50301bbc0cf5ed57564d1b7b5aef5a0fc938",
        "sha256_in_prefix": "260dcd39405e2f38cc30f254673f50301bbc0cf5ed57564d1b7b5aef5a0fc938",
        "size_in_bytes": 66305
      },
      {
        "_path": "share/basemap/rivers_c.dat",
        "path_type": "hardlink",
        "sha256": "ef7e265719ebeaca4042dec042d2204a0d7f96dc69d9c30505cd85b7656c1e53",
        "sha256_in_prefix": "ef7e265719ebeaca4042dec042d2204a0d7f96dc69d9c30505cd85b7656c1e53",
        "size_in_bytes": 381872
      },
      {
        "_path": "share/basemap/rivers_l.dat",
        "path_type": "hardlink",
        "sha256": "ae324555a902674d7e9ceb26c1aca3d4eb1327225a03277992096005f14d69f8",
        "sha256_in_prefix": "ae324555a902674d7e9ceb26c1aca3d4eb1327225a03277992096005f14d69f8",
        "size_in_bytes": 571880
      },
      {
        "_path": "share/basemap/riversmeta_c.dat",
        "path_type": "hardlink",
        "sha256": "6134a633984dfeb74aefd352ce0fd53b9c5b7599f161d90904f6f3702f1d805c",
        "sha256_in_prefix": "6134a633984dfeb74aefd352ce0fd53b9c5b7599f161d90904f6f3702f1d805c",
        "size_in_bytes": 1005800
      },
      {
        "_path": "share/basemap/riversmeta_l.dat",
        "path_type": "hardlink",
        "sha256": "32461c421a61906f668b4573661b84892485106a54828275e701445c0e41070e",
        "sha256_in_prefix": "32461c421a61906f668b4573661b84892485106a54828275e701445c0e41070e",
        "size_in_bytes": 1009086
      },
      {
        "_path": "share/basemap/shadedrelief.jpg",
        "path_type": "hardlink",
        "sha256": "e52e46e82d14f7d321a287c9c323603cbe0fe9c25861e191eadfcad4129a39d0",
        "sha256_in_prefix": "e52e46e82d14f7d321a287c9c323603cbe0fe9c25861e191eadfcad4129a39d0",
        "size_in_bytes": 5653052
      },
      {
        "_path": "share/basemap/states_c.dat",
        "path_type": "hardlink",
        "sha256": "8084594dfda159ea1266a6d681cefb46910dc5e5fdf2eb7c671b9799ad9cf57d",
        "sha256_in_prefix": "8084594dfda159ea1266a6d681cefb46910dc5e5fdf2eb7c671b9799ad9cf57d",
        "size_in_bytes": 177008
      },
      {
        "_path": "share/basemap/states_l.dat",
        "path_type": "hardlink",
        "sha256": "1084498ad9bd6babcdb1536ef4b2ef3938670a29dc1b8afc474768da599d2ab6",
        "sha256_in_prefix": "1084498ad9bd6babcdb1536ef4b2ef3938670a29dc1b8afc474768da599d2ab6",
        "size_in_bytes": 264944
      },
      {
        "_path": "share/basemap/statesmeta_c.dat",
        "path_type": "hardlink",
        "sha256": "b9b76ea337d3f6932b0af765d9ebf60e9938f50d951ab8e6073a19ec23dd78aa",
        "sha256_in_prefix": "b9b76ea337d3f6932b0af765d9ebf60e9938f50d951ab8e6073a19ec23dd78aa",
        "size_in_bytes": 27546
      },
      {
        "_path": "share/basemap/statesmeta_l.dat",
        "path_type": "hardlink",
        "sha256": "22714d36e5f94884533c530e1d094b75c98c0b638b0c7d43b116e4e0a5f4810c",
        "sha256_in_prefix": "22714d36e5f94884533c530e1d094b75c98c0b638b0c7d43b116e4e0a5f4810c",
        "size_in_bytes": 27788
      }
    ],
    "paths_version": 1
  },
  "platform": "linux",
  "requested_spec": "conda-forge/linux-64::basemap==1.2.0=py37h673bf1a_2",
  "sha256": "ff97d3dde22ca4570a009d08b0d51b2dd33d62edcf70cd70583aab7760f7fbcc",
  "size": 15892231,
  "subdir": "linux-64",
  "timestamp": 1552133793013,
  "track_features": "",
  "url": "https://conda.anaconda.org/conda-forge/linux-64/basemap-1.2.0-py37h673bf1a_2.tar.bz2",
  "version": "1.2.0"
}