{
  "build": "py_0",
  "build_number": 0,
  "channel": "https://conda.anaconda.org/conda-forge/noarch",
  "constrains": [],
  "depends": [
    "geographiclib <2,>=1.49",
    "python"
  ],
  "extracted_package_dir": "/home/opp/miniconda/3/amd64/pkgs/geopy-1.21.0-py_0",
  "features": "",
  "files": [
    "lib/python3.7/site-packages/geopy-1.21.0.dist-info/AUTHORS",
    "lib/python3.7/site-packages/geopy-1.21.0.dist-info/INSTALLER",
    "lib/python3.7/site-packages/geopy-1.21.0.dist-info/LICENSE",
    "lib/python3.7/site-packages/geopy-1.21.0.dist-info/METADATA",
    "lib/python3.7/site-packages/geopy-1.21.0.dist-info/RECORD",
    "lib/python3.7/site-packages/geopy-1.21.0.dist-info/WHEEL",
    "lib/python3.7/site-packages/geopy-1.21.0.dist-info/top_level.txt",
    "lib/python3.7/site-packages/geopy/__init__.py",
    "lib/python3.7/site-packages/geopy/compat.py",
    "lib/python3.7/site-packages/geopy/distance.py",
    "lib/python3.7/site-packages/geopy/exc.py",
    "lib/python3.7/site-packages/geopy/extra/__init__.py",
    "lib/python3.7/site-packages/geopy/extra/rate_limiter.py",
    "lib/python3.7/site-packages/geopy/format.py",
    "lib/python3.7/site-packages/geopy/geocoders/__init__.py",
    "lib/python3.7/site-packages/geopy/geocoders/arcgis.py",
    "lib/python3.7/site-packages/geopy/geocoders/azure.py",
    "lib/python3.7/site-packages/geopy/geocoders/baidu.py",
    "lib/python3.7/site-packages/geopy/geocoders/banfrance.py",
    "lib/python3.7/site-packages/geopy/geocoders/base.py",
    "lib/python3.7/site-packages/geopy/geocoders/bing.py",
    "lib/python3.7/site-packages/geopy/geocoders/databc.py",
    "lib/python3.7/site-packages/geopy/geocoders/geocodeearth.py",
    "lib/python3.7/site-packages/geopy/geocoders/geocodefarm.py",
    "lib/python3.7/site-packages/geopy/geocoders/geolake.py",
    "lib/python3.7/site-packages/geopy/geocoders/geonames.py",
    "lib/python3.7/site-packages/geopy/geocoders/googlev3.py",
    "lib/python3.7/site-packages/geopy/geocoders/here.py",
    "lib/python3.7/site-packages/geopy/geocoders/ignfrance.py",
    "lib/python3.7/site-packages/geopy/geocoders/mapbox.py",
    "lib/python3.7/site-packages/geopy/geocoders/opencage.py",
    "lib/python3.7/site-packages/geopy/geocoders/openmapquest.py",
    "lib/python3.7/site-packages/geopy/geocoders/osm.py",
    "lib/python3.7/site-packages/geopy/geocoders/pelias.py",
    "lib/python3.7/site-packages/geopy/geocoders/photon.py",
    "lib/python3.7/site-packages/geopy/geocoders/pickpoint.py",
    "lib/python3.7/site-packages/geopy/geocoders/smartystreets.py",
    "lib/python3.7/site-packages/geopy/geocoders/tomtom.py",
    "lib/python3.7/site-packages/geopy/geocoders/what3words.py",
    "lib/python3.7/site-packages/geopy/geocoders/yandex.py",
    "lib/python3.7/site-packages/geopy/location.py",
    "lib/python3.7/site-packages/geopy/point.py",
    "lib/python3.7/site-packages/geopy/timezone.py",
    "lib/python3.7/site-packages/geopy/units.py",
    "lib/python3.7/site-packages/geopy/util.py",
    "lib/python3.7/site-packages/geopy/__pycache__/__init__.cpython-37.pyc",
    "lib/python3.7/site-packages/geopy/__pycache__/compat.cpython-37.pyc",
    "lib/python3.7/site-packages/geopy/__pycache__/distance.cpython-37.pyc",
    "lib/python3.7/site-packages/geopy/__pycache__/exc.cpython-37.pyc",
    "lib/python3.7/site-packages/geopy/extra/__pycache__/__init__.cpython-37.pyc",
    "lib/python3.7/site-packages/geopy/extra/__pycache__/rate_limiter.cpython-37.pyc",
    "lib/python3.7/site-packages/geopy/__pycache__/format.cpython-37.pyc",
    "lib/python3.7/site-packages/geopy/geocoders/__pycache__/__init__.cpython-37.pyc",
    "lib/python3.7/site-packages/geopy/geocoders/__pycache__/arcgis.cpython-37.pyc",
    "lib/python3.7/site-packages/geopy/geocoders/__pycache__/azure.cpython-37.pyc",
    "lib/python3.7/site-packages/geopy/geocoders/__pycache__/baidu.cpython-37.pyc",
    "lib/python3.7/site-packages/geopy/geocoders/__pycache__/banfrance.cpython-37.pyc",
    "lib/python3.7/site-packages/geopy/geocoders/__pycache__/base.cpython-37.pyc",
    "lib/python3.7/site-packages/geopy/geocoders/__pycache__/bing.cpython-37.pyc",
    "lib/python3.7/site-packages/geopy/geocoders/__pycache__/databc.cpython-37.pyc",
    "lib/python3.7/site-packages/geopy/geocoders/__pycache__/geocodeearth.cpython-37.pyc",
    "lib/python3.7/site-packages/geopy/geocoders/__pycache__/geocodefarm.cpython-37.pyc",
    "lib/python3.7/site-packages/geopy/geocoders/__pycache__/geolake.cpython-37.pyc",
    "lib/python3.7/site-packages/geopy/geocoders/__pycache__/geonames.cpython-37.pyc",
    "lib/python3.7/site-packages/geopy/geocoders/__pycache__/googlev3.cpython-37.pyc",
    "lib/python3.7/site-packages/geopy/geocoders/__pycache__/here.cpython-37.pyc",
    "lib/python3.7/site-packages/geopy/geocoders/__pycache__/ignfrance.cpython-37.pyc",
    "lib/python3.7/site-packages/geopy/geocoders/__pycache__/mapbox.cpython-37.pyc",
    "lib/python3.7/site-packages/geopy/geocoders/__pycache__/opencage.cpython-37.pyc",
    "lib/python3.7/site-packages/geopy/geocoders/__pycache__/openmapquest.cpython-37.pyc",
    "lib/python3.7/site-packages/geopy/geocoders/__pycache__/osm.cpython-37.pyc",
    "lib/python3.7/site-packages/geopy/geocoders/__pycache__/pelias.cpython-37.pyc",
    "lib/python3.7/site-packages/geopy/geocoders/__pycache__/photon.cpython-37.pyc",
    "lib/python3.7/site-packages/geopy/geocoders/__pycache__/pickpoint.cpython-37.pyc",
    "lib/python3.7/site-packages/geopy/geocoders/__pycache__/smartystreets.cpython-37.pyc",
    "lib/python3.7/site-packages/geopy/geocoders/__pycache__/tomtom.cpython-37.pyc",
    "lib/python3.7/site-packages/geopy/geocoders/__pycache__/what3words.cpython-37.pyc",
    "lib/python3.7/site-packages/geopy/geocoders/__pycache__/yandex.cpython-37.pyc",
    "lib/python3.7/site-packages/geopy/__pycache__/location.cpython-37.pyc",
    "lib/python3.7/site-packages/geopy/__pycache__/point.cpython-37.pyc",
    "lib/python3.7/site-packages/geopy/__pycache__/timezone.cpython-37.pyc",
    "lib/python3.7/site-packages/geopy/__pycache__/units.cpython-37.pyc",
    "lib/python3.7/site-packages/geopy/__pycache__/util.cpython-37.pyc"
  ],
  "fn": "geopy-1.21.0-py_0.tar.bz2",
  "license": "MIT",
  "link": {
    "source": "/home/opp/miniconda/3/amd64/pkgs/geopy-1.21.0-py_0",
    "type": 1
  },
  "md5": "1dfa1b0b5228e8cbe4e787040ec4c919",
  "name": "geopy",
  "noarch": "python",
  "package_tarball_full_path": "/home/opp/miniconda/3/amd64/pkgs/geopy-1.21.0-py_0.tar.bz2",
  "package_type": "noarch_python",
  "paths_data": {
    "paths": [
      {
        "_path": "site-packages/geopy-1.21.0.dist-info/AUTHORS",
        "path_type": "hardlink",
        "sha256": "5336ff1d54f8a773b22702513e2678bcf11ebee8f00a4495566ab70aab2f33c2",
        "sha256_in_prefix": "5336ff1d54f8a773b22702513e2678bcf11ebee8f00a4495566ab70aab2f33c2",
        "size_in_bytes": 3671
      },
      {
        "_path": "site-packages/geopy-1.21.0.dist-info/INSTALLER",
        "path_type": "hardlink",
        "sha256": "d0edee15f91b406f3f99726e44eb990be6e34fd0345b52b910c568e0eef6a2a8",
        "sha256_in_prefix": "d0edee15f91b406f3f99726e44eb990be6e34fd0345b52b910c568e0eef6a2a8",
        "size_in_bytes": 5
      },
      {
        "_path": "site-packages/geopy-1.21.0.dist-info/LICENSE",
        "path_type": "hardlink",
        "sha256": "f09cbf1aec22dfc3d457594b619d0484a12498e9481bc126fb16dff6bf5aec16",
        "sha256_in_prefix": "f09cbf1aec22dfc3d457594b619d0484a12498e9481bc126fb16dff6bf5aec16",
        "size_in_bytes": 1076
      },
      {
        "_path": "site-packages/geopy-1.21.0.dist-info/METADATA",
        "path_type": "hardlink",
        "sha256": "1b03d22b57e0f4a35126f44f63befd6a743f1582de292857e6aefd8bfc5ded27",
        "sha256_in_prefix": "1b03d22b57e0f4a35126f44f63befd6a743f1582de292857e6aefd8bfc5ded27",
        "size_in_bytes": 6751
      },
      {
        "_path": "site-packages/geopy-1.21.0.dist-info/RECORD",
        "path_type": "hardlink",
        "sha256": "5ef5fb650d823be9380d6859342e411a908ee1404472d50659b00cc66159b767",
        "sha256_in_prefix": "5ef5fb650d823be9380d6859342e411a908ee1404472d50659b00cc66159b767",
        "size_in_bytes": 4733
      },
      {
        "_path": "site-packages/geopy-1.21.0.dist-info/WHEEL",
        "path_type": "hardlink",
        "sha256": "9064fbe0b5b245466b2f85602e1ebf835d8879597ff6ef5956169dae05d95046",
        "sha256_in_prefix": "9064fbe0b5b245466b2f85602e1ebf835d8879597ff6ef5956169dae05d95046",
        "size_in_bytes": 110
      },
      {
        "_path": "site-packages/geopy-1.21.0.dist-info/top_level.txt",
        "path_type": "hardlink",
        "sha256": "afeec7449e28ad689f595b4e29d2ec2c063e55fafbf028840f253b7e76764486",
        "sha256_in_prefix": "afeec7449e28ad689f595b4e29d2ec2c063e55fafbf028840f253b7e76764486",
        "size_in_bytes": 6
      },
      {
        "_path": "site-packages/geopy/__init__.py",
        "path_type": "hardlink",
        "sha256": "f177919baedcea1af827c6f1125f7a4ed3208fcfd00130a874b00dba5ed802ce",
        "sha256_in_prefix": "f177919baedcea1af827c6f1125f7a4ed3208fcfd00130a874b00dba5ed802ce",
        "size_in_bytes": 892
      },
      {
        "_path": "site-packages/geopy/compat.py",
        "path_type": "hardlink",
        "sha256": "2499fc973b4c71e1bdfedad942fcf2eb55d5a316668f510a294ebe9e7102d18c",
        "sha256_in_prefix": "2499fc973b4c71e1bdfedad942fcf2eb55d5a316668f510a294ebe9e7102d18c",
        "size_in_bytes": 4965
      },
      {
        "_path": "site-packages/geopy/distance.py",
        "path_type": "hardlink",
        "sha256": "1fddf310111c652a93bbcc84d1bfdc132abe0af18ba3fd11241331bde748df50",
        "sha256_in_prefix": "1fddf310111c652a93bbcc84d1bfdc132abe0af18ba3fd11241331bde748df50",
        "size_in_bytes": 23338
      },
      {
        "_path": "site-packages/geopy/exc.py",
        "path_type": "hardlink",
        "sha256": "54765b207345688e5453fa24449cc13bf81a0d10bf8c946edab016ac98c3d3ad",
        "sha256_in_prefix": "54765b207345688e5453fa24449cc13bf81a0d10bf8c946edab016ac98c3d3ad",
        "size_in_bytes": 2514
      },
      {
        "_path": "site-packages/geopy/extra/__init__.py",
        "path_type": "hardlink",
        "sha256": "e3b0c44298fc1c149afbf4c8996fb92427ae41e4649b934ca495991b7852b855",
        "sha256_in_prefix": "e3b0c44298fc1c149afbf4c8996fb92427ae41e4649b934ca495991b7852b855",
        "size_in_bytes": 0
      },
      {
        "_path": "site-packages/geopy/extra/rate_limiter.py",
        "path_type": "hardlink",
        "sha256": "399b186ceb9b9de93ef41f1650877098c2135f66cd6ec219592663a90b150ad3",
        "sha256_in_prefix": "399b186ceb9b9de93ef41f1650877098c2135f66cd6ec219592663a90b150ad3",
        "size_in_bytes": 5478
      },
      {
        "_path": "site-packages/geopy/format.py",
        "path_type": "hardlink",
        "sha256": "cf06f08a0c14b4c074efca51db5f61c23dc736e50d37ddb4da55307c23de0a44",
        "sha256_in_prefix": "cf06f08a0c14b4c074efca51db5f61c23dc736e50d37ddb4da55307c23de0a44",
        "size_in_bytes": 2993
      },
      {
        "_path": "site-packages/geopy/geocoders/__init__.py",
        "path_type": "hardlink",
        "sha256": "2ea9e2ea97e43da3cb01be4f054c3f9e236ec82defdc85e967b7bc97ef711915",
        "sha256_in_prefix": "2ea9e2ea97e43da3cb01be4f054c3f9e236ec82defdc85e967b7bc97ef711915",
        "size_in_bytes": 6784
      },
      {
        "_path": "site-packages/geopy/geocoders/arcgis.py",
        "path_type": "hardlink",
        "sha256": "c26635b5cd0c8cda990616d607c691530dd4a617bb3f33c4200d5ca31d77de70",
        "sha256_in_prefix": "c26635b5cd0c8cda990616d607c691530dd4a617bb3f33c4200d5ca31d77de70",
        "size_in_bytes": 13233
      },
      {
        "_path": "site-packages/geopy/geocoders/azure.py",
        "path_type": "hardlink",
        "sha256": "53152988bdaf520f4d9914403da468995c18385ff92f9f819ae07e07ed369d6b",
        "sha256_in_prefix": "53152988bdaf520f4d9914403da468995c18385ff92f9f819ae07e07ed369d6b",
        "size_in_bytes": 2236
      },
      {
        "_path": "site-packages/geopy/geocoders/baidu.py",
        "path_type": "hardlink",
        "sha256": "79209b1fe90a24e4dbcc21eaa7d01dd4a6a425bd95a8746acfb703f6f6972ae2",
        "sha256_in_prefix": "79209b1fe90a24e4dbcc21eaa7d01dd4a6a425bd95a8746acfb703f6f6972ae2",
        "size_in_bytes": 8949
      },
      {
        "_path": "site-packages/geopy/geocoders/banfrance.py",
        "path_type": "hardlink",
        "sha256": "585f49ef9b4b61bcd0bcb23dcbbb430b0fb710e5bf5138fb58fc91f58bbaae75",
        "sha256_in_prefix": "585f49ef9b4b61bcd0bcb23dcbbb430b0fb710e5bf5138fb58fc91f58bbaae75",
        "size_in_bytes": 5760
      },
      {
        "_path": "site-packages/geopy/geocoders/base.py",
        "path_type": "hardlink",
        "sha256": "4c59cefd64d2662fed14be1a8ebb0aab3f651e45068d7a5567b36b552ee7ea70",
        "sha256_in_prefix": "4c59cefd64d2662fed14be1a8ebb0aab3f651e45068d7a5567b36b552ee7ea70",
        "size_in_bytes": 16455
      },
      {
        "_path": "site-packages/geopy/geocoders/bing.py",
        "path_type": "hardlink",
        "sha256": "cdcdb8b8042bd14ee866a16e41f3d2784ba0cb1537b5f7441155b0512cbef230",
        "sha256_in_prefix": "cdcdb8b8042bd14ee866a16e41f3d2784ba0cb1537b5f7441155b0512cbef230",
        "size_in_bytes": 9352
      },
      {
        "_path": "site-packages/geopy/geocoders/databc.py",
        "path_type": "hardlink",
        "sha256": "6667c9d47da057f1c55f984de69dc29aed152f1b04f549c587664a2be9de066b",
        "sha256_in_prefix": "6667c9d47da057f1c55f984de69dc29aed152f1b04f549c587664a2be9de066b",
        "size_in_bytes": 4889
      },
      {
        "_path": "site-packages/geopy/geocoders/geocodeearth.py",
        "path_type": "hardlink",
        "sha256": "deaafcc57a84c5639a900072b93ad815267b9396a394bb0402953e9cefd9dbdd",
        "sha256_in_prefix": "deaafcc57a84c5639a900072b93ad815267b9396a394bb0402953e9cefd9dbdd",
        "size_in_bytes": 2860
      },
      {
        "_path": "site-packages/geopy/geocoders/geocodefarm.py",
        "path_type": "hardlink",
        "sha256": "eb954d5166f423ca20ea8403895700e48f63d95e15ba1c230325b4ba3f807c1b",
        "sha256_in_prefix": "eb954d5166f423ca20ea8403895700e48f63d95e15ba1c230325b4ba3f807c1b",
        "size_in_bytes": 7106
      },
      {
        "_path": "site-packages/geopy/geocoders/geolake.py",
        "path_type": "hardlink",
        "sha256": "bd7ca56d3e5bbfb61ad1a19d13f351c51546a0ca8034298eca21539e93db01b2",
        "sha256_in_prefix": "bd7ca56d3e5bbfb61ad1a19d13f351c51546a0ca8034298eca21539e93db01b2",
        "size_in_bytes": 5648
      },
      {
        "_path": "site-packages/geopy/geocoders/geonames.py",
        "path_type": "hardlink",
        "sha256": "f8166957e03d3ea38044f0f692658f83d8bb44b87d0c7a73fa2187b714e33123",
        "sha256_in_prefix": "f8166957e03d3ea38044f0f692658f83d8bb44b87d0c7a73fa2187b714e33123",
        "size_in_bytes": 14852
      },
      {
        "_path": "site-packages/geopy/geocoders/googlev3.py",
        "path_type": "hardlink",
        "sha256": "9073b8c1b520e6ba8ead721ea3bacded4188c94ac0e9e1fd3ca61437569e0645",
        "sha256_in_prefix": "9073b8c1b520e6ba8ead721ea3bacded4188c94ac0e9e1fd3ca61437569e0645",
        "size_in_bytes": 19887
      },
      {
        "_path": "site-packages/geopy/geocoders/here.py",
        "path_type": "hardlink",
        "sha256": "4b450bf874be4094d3c27ccc8f0bff4276cd2f176c74fa450939872118ec954e",
        "sha256_in_prefix": "4b450bf874be4094d3c27ccc8f0bff4276cd2f176c74fa450939872118ec954e",
        "size_in_bytes": 14463
      },
      {
        "_path": "site-packages/geopy/geocoders/ignfrance.py",
        "path_type": "hardlink",
        "sha256": "acadfa0131dbcd21cdfc7d8b1ea812a6244a8f8566590d4622be5ebf25de8090",
        "sha256_in_prefix": "acadfa0131dbcd21cdfc7d8b1ea812a6244a8f8566590d4622be5ebf25de8090",
        "size_in_bytes": 20403
      },
      {
        "_path": "site-packages/geopy/geocoders/mapbox.py",
        "path_type": "hardlink",
        "sha256": "752ac50bdca07d3b9cfd0b4c9c3ca4a3a42d375ee50f4e745e1c0c45c4aa6f60",
        "sha256_in_prefix": "752ac50bdca07d3b9cfd0b4c9c3ca4a3a42d375ee50f4e745e1c0c45c4aa6f60",
        "size_in_bytes": 7514
      },
      {
        "_path": "site-packages/geopy/geocoders/opencage.py",
        "path_type": "hardlink",
        "sha256": "7321bacfcf3ee9ee0d4fbdf9ea48b2ad25be7f6cb97275e18a80aba9614f7006",
        "sha256_in_prefix": "7321bacfcf3ee9ee0d4fbdf9ea48b2ad25be7f6cb97275e18a80aba9614f7006",
        "size_in_bytes": 9931
      },
      {
        "_path": "site-packages/geopy/geocoders/openmapquest.py",
        "path_type": "hardlink",
        "sha256": "255326a642736a4dbefdf6b891740fccc1ca55972edf6c45c9d58a9228c1ad6d",
        "sha256_in_prefix": "255326a642736a4dbefdf6b891740fccc1ca55972edf6c45c9d58a9228c1ad6d",
        "size_in_bytes": 4121
      },
      {
        "_path": "site-packages/geopy/geocoders/osm.py",
        "path_type": "hardlink",
        "sha256": "1dc783023e5ca3cf87d41db0b5f633d059323836a307ead0de595d417ea97136",
        "sha256_in_prefix": "1dc783023e5ca3cf87d41db0b5f633d059323836a307ead0de595d417ea97136",
        "size_in_bytes": 17523
      },
      {
        "_path": "site-packages/geopy/geocoders/pelias.py",
        "path_type": "hardlink",
        "sha256": "6f27ed55e1b0e4fad07216bf64c85b2ada7fc3ff7788219dab68aa7c62473f59",
        "sha256_in_prefix": "6f27ed55e1b0e4fad07216bf64c85b2ada7fc3ff7788219dab68aa7c62473f59",
        "size_in_bytes": 10496
      },
      {
        "_path": "site-packages/geopy/geocoders/photon.py",
        "path_type": "hardlink",
        "sha256": "a2d5cde0514a4204898ad089a718c73871d20b3d6323e25733665c4af92f99fb",
        "sha256_in_prefix": "a2d5cde0514a4204898ad089a718c73871d20b3d6323e25733665c4af92f99fb",
        "size_in_bytes": 8200
      },
      {
        "_path": "site-packages/geopy/geocoders/pickpoint.py",
        "path_type": "hardlink",
        "sha256": "8ab2718aa68220ef2ea0d73385ecf6c52985ab776823f4f9867b214e0af0e5f4",
        "sha256_in_prefix": "8ab2718aa68220ef2ea0d73385ecf6c52985ab776823f4f9867b214e0af0e5f4",
        "size_in_bytes": 3868
      },
      {
        "_path": "site-packages/geopy/geocoders/smartystreets.py",
        "path_type": "hardlink",
        "sha256": "4783bbdd8af1daf43aa6df13fac52606eae371fde882330d69061287a512c9f5",
        "sha256_in_prefix": "4783bbdd8af1daf43aa6df13fac52606eae371fde882330d69061287a512c9f5",
        "size_in_bytes": 6675
      },
      {
        "_path": "site-packages/geopy/geocoders/tomtom.py",
        "path_type": "hardlink",
        "sha256": "82cd3b839b38583d1a04d9c70736ada41537d606296d51c58deacbaa5232b146",
        "sha256_in_prefix": "82cd3b839b38583d1a04d9c70736ada41537d606296d51c58deacbaa5232b146",
        "size_in_bytes": 7727
      },
      {
        "_path": "site-packages/geopy/geocoders/what3words.py",
        "path_type": "hardlink",
        "sha256": "7f402fdab0740e4637f2fafaf9c1baa5df9071612fac5196953ce0af3cb5488b",
        "sha256_in_prefix": "7f402fdab0740e4637f2fafaf9c1baa5df9071612fac5196953ce0af3cb5488b",
        "size_in_bytes": 8452
      },
      {
        "_path": "site-packages/geopy/geocoders/yandex.py",
        "path_type": "hardlink",
        "sha256": "a79e5c7d4928f4a4af62aae95a6dbebbaefcc17c889cb9da467c7a246e0b98ec",
        "sha256_in_prefix": "a79e5c7d4928f4a4af62aae95a6dbebbaefcc17c889cb9da467c7a246e0b98ec",
        "size_in_bytes": 8188
      },
      {
        "_path": "site-packages/geopy/location.py",
        "path_type": "hardlink",
        "sha256": "b64470c225d8cf448900d289e2fbba7c3de14d73dace6b9cad082f2bb9d6ab35",
        "sha256_in_prefix": "b64470c225d8cf448900d289e2fbba7c3de14d73dace6b9cad082f2bb9d6ab35",
        "size_in_bytes": 3793
      },
      {
        "_path": "site-packages/geopy/point.py",
        "path_type": "hardlink",
        "sha256": "73d8bffea6fbed35aa16fa77158106cc0c1c0b23a7ab2c01ec4b85a608ea5eec",
        "sha256_in_prefix": "73d8bffea6fbed35aa16fa77158106cc0c1c0b23a7ab2c01ec4b85a608ea5eec",
        "size_in_bytes": 14639
      },
      {
        "_path": "site-packages/geopy/timezone.py",
        "path_type": "hardlink",
        "sha256": "8066bc5b8b51b40af5496e1e06ef75a96b79b5db3fe8eac2047bb2f8d729f00f",
        "sha256_in_prefix": "8066bc5b8b51b40af5496e1e06ef75a96b79b5db3fe8eac2047bb2f8d729f00f",
        "size_in_bytes": 2602
      },
      {
        "_path": "site-packages/geopy/units.py",
        "path_type": "hardlink",
        "sha256": "df14d5080fb86c48f2079c7d2ec3d62e41caa01811c8315ad2e5d4dbc112a2b5",
        "sha256_in_prefix": "df14d5080fb86c48f2079c7d2ec3d62e41caa01811c8315ad2e5d4dbc112a2b5",
        "size_in_bytes": 2591
      },
      {
        "_path": "site-packages/geopy/util.py",
        "path_type": "hardlink",
        "sha256": "1cd289f3a2d4fca85abafb24291dc74aaf62f3539b994e71bdd938b8c22b32b6",
        "sha256_in_prefix": "1cd289f3a2d4fca85abafb24291dc74aaf62f3539b994e71bdd938b8c22b32b6",
        "size_in_bytes": 1384
      },
      {
        "_path": "lib/python3.7/site-packages/geopy/__pycache__/__init__.cpython-37.pyc",
        "path_type": "pyc_file"
      },
      {
        "_path": "lib/python3.7/site-packages/geopy/__pycache__/compat.cpython-37.pyc",
        "path_type": "pyc_file"
      },
      {
        "_path": "lib/python3.7/site-packages/geopy/__pycache__/distance.cpython-37.pyc",
        "path_type": "pyc_file"
      },
      {
        "_path": "lib/python3.7/site-packages/geopy/__pycache__/exc.cpython-37.pyc",
        "path_type": "pyc_file"
      },
      {
        "_path": "lib/python3.7/site-packages/geopy/extra/__pycache__/__init__.cpython-37.pyc",
        "path_type": "pyc_file"
      },
      {
        "_path": "lib/python3.7/site-packages/geopy/extra/__pycache__/rate_limiter.cpython-37.pyc",
        "path_type": "pyc_file"
      },
      {
        "_path": "lib/python3.7/site-packages/geopy/__pycache__/format.cpython-37.pyc",
        "path_type": "pyc_file"
      },
      {
        "_path": "lib/python3.7/site-packages/geopy/geocoders/__pycache__/__init__.cpython-37.pyc",
        "path_type": "pyc_file"
      },
      {
        "_path": "lib/python3.7/site-packages/geopy/geocoders/__pycache__/arcgis.cpython-37.pyc",
        "path_type": "pyc_file"
      },
      {
        "_path": "lib/python3.7/site-packages/geopy/geocoders/__pycache__/azure.cpython-37.pyc",
        "path_type": "pyc_file"
      },
      {
        "_path": "lib/python3.7/site-packages/geopy/geocoders/__pycache__/baidu.cpython-37.pyc",
        "path_type": "pyc_file"
      },
      {
        "_path": "lib/python3.7/site-packages/geopy/geocoders/__pycache__/banfrance.cpython-37.pyc",
        "path_type": "pyc_file"
      },
      {
        "_path": "lib/python3.7/site-packages/geopy/geocoders/__pycache__/base.cpython-37.pyc",
        "path_type": "pyc_file"
      },
      {
        "_path": "lib/python3.7/site-packages/geopy/geocoders/__pycache__/bing.cpython-37.pyc",
        "path_type": "pyc_file"
      },
      {
        "_path": "lib/python3.7/site-packages/geopy/geocoders/__pycache__/databc.cpython-37.pyc",
        "path_type": "pyc_file"
      },
      {
        "_path": "lib/python3.7/site-packages/geopy/geocoders/__pycache__/geocodeearth.cpython-37.pyc",
        "path_type": "pyc_file"
      },
      {
        "_path": "lib/python3.7/site-packages/geopy/geocoders/__pycache__/geocodefarm.cpython-37.pyc",
        "path_type": "pyc_file"
      },
      {
        "_path": "lib/python3.7/site-packages/geopy/geocoders/__pycache__/geolake.cpython-37.pyc",
        "path_type": "pyc_file"
      },
      {
        "_path": "lib/python3.7/site-packages/geopy/geocoders/__pycache__/geonames.cpython-37.pyc",
        "path_type": "pyc_file"
      },
      {
        "_path": "lib/python3.7/site-packages/geopy/geocoders/__pycache__/googlev3.cpython-37.pyc",
        "path_type": "pyc_file"
      },
      {
        "_path": "lib/python3.7/site-packages/geopy/geocoders/__pycache__/here.cpython-37.pyc",
        "path_type": "pyc_file"
      },
      {
        "_path": "lib/python3.7/site-packages/geopy/geocoders/__pycache__/ignfrance.cpython-37.pyc",
        "path_type": "pyc_file"
      },
      {
        "_path": "lib/python3.7/site-packages/geopy/geocoders/__pycache__/mapbox.cpython-37.pyc",
        "path_type": "pyc_file"
      },
      {
        "_path": "lib/python3.7/site-packages/geopy/geocoders/__pycache__/opencage.cpython-37.pyc",
        "path_type": "pyc_file"
      },
      {
        "_path": "lib/python3.7/site-packages/geopy/geocoders/__pycache__/openmapquest.cpython-37.pyc",
        "path_type": "pyc_file"
      },
      {
        "_path": "lib/python3.7/site-packages/geopy/geocoders/__pycache__/osm.cpython-37.pyc",
        "path_type": "pyc_file"
      },
      {
        "_path": "lib/python3.7/site-packages/geopy/geocoders/__pycache__/pelias.cpython-37.pyc",
        "path_type": "pyc_file"
      },
      {
        "_path": "lib/python3.7/site-packages/geopy/geocoders/__pycache__/photon.cpython-37.pyc",
        "path_type": "pyc_file"
      },
      {
        "_path": "lib/python3.7/site-packages/geopy/geocoders/__pycache__/pickpoint.cpython-37.pyc",
        "path_type": "pyc_file"
      },
      {
        "_path": "lib/python3.7/site-packages/geopy/geocoders/__pycache__/smartystreets.cpython-37.pyc",
        "path_type": "pyc_file"
      },
      {
        "_path": "lib/python3.7/site-packages/geopy/geocoders/__pycache__/tomtom.cpython-37.pyc",
        "path_type": "pyc_file"
      },
      {
        "_path": "lib/python3.7/site-packages/geopy/geocoders/__pycache__/what3words.cpython-37.pyc",
        "path_type": "pyc_file"
      },
      {
        "_path": "lib/python3.7/site-packages/geopy/geocoders/__pycache__/yandex.cpython-37.pyc",
        "path_type": "pyc_file"
      },
      {
        "_path": "lib/python3.7/site-packages/geopy/__pycache__/location.cpython-37.pyc",
        "path_type": "pyc_file"
      },
      {
        "_path": "lib/python3.7/site-packages/geopy/__pycache__/point.cpython-37.pyc",
        "path_type": "pyc_file"
      },
      {
        "_path": "lib/python3.7/site-packages/geopy/__pycache__/timezone.cpython-37.pyc",
        "path_type": "pyc_file"
      },
      {
        "_path": "lib/python3.7/site-packages/geopy/__pycache__/units.cpython-37.pyc",
        "path_type": "pyc_file"
      },
      {
        "_path": "lib/python3.7/site-packages/geopy/__pycache__/util.cpython-37.pyc",
        "path_type": "pyc_file"
      }
    ],
    "paths_version": 1
  },
  "requested_spec": "conda-forge/noarch::geopy==1.21.0=py_0",
  "sha256": "f521f57ef5bbf13bd3127da50466256b9b566a931bb4fcd356a6f64f9f44888d",
  "size": 59894,
  "subdir": "noarch",
  "timestamp": 1580732427729,
  "track_features": "",
  "url": "https://conda.anaconda.org/conda-forge/noarch/geopy-1.21.0-py_0.tar.bz2",
  "version": "1.21.0"
}