{
  "arch": "x86_64",
  "build": "h0b5b093_0",
  "build_number": 0,
  "channel": "https://repo.anaconda.com/pkgs/main/linux-64",
  "constrains": [],
  "depends": [
    "libgcc-ng >=7.3.0",
    "libstdcxx-ng >=7.3.0",
    "xz >=5.2.4,<6.0a0",
    "zlib >=1.2.11,<1.3.0a0"
  ],
  "extracted_package_dir": "/home/opp/miniconda/3/amd64/pkgs/zstd-1.3.7-h0b5b093_0",
  "features": "",
  "files": [
    "bin/unzstd",
    "bin/zstd",
    "bin/zstdcat",
    "bin/zstdmt",
    "include/cover.h",
    "include/zbuff.h",
    "include/zdict.h",
    "include/zstd.h",
    "include/zstd_errors.h",
    "lib/libzstd.a",
    "lib/libzstd.so",
    "lib/libzstd.so.1.3.7",
    "lib/pkgconfig/libzstd.pc",
    "share/man/man1/unzstd.1",
    "share/man/man1/zstd.1",
    "share/man/man1/zstdcat.1",
    "share/man/man1/zstdgrep.1",
    "share/man/man1/zstdless.1"
  ],
  "fn": "zstd-1.3.7-h0b5b093_0.conda",
  "license": "BSD 3-Clause",
  "license_family": "BSD",
  "link": {
    "source": "/home/opp/miniconda/3/amd64/pkgs/zstd-1.3.7-h0b5b093_0",
    "type": 1
  },
  "md5": "9789e38cd4216c52f7d740625c49de79",
  "name": "zstd",
  "package_tarball_full_path": "/home/opp/miniconda/3/amd64/pkgs/zstd-1.3.7-h0b5b093_0.conda",
  "paths_data": {
    "paths": [
      {
        "_path": "bin/unzstd",
        "path_type": "softlink",
        "sha256": "830c1b0f6100ed84ff64d45b7f592f9fdf4546b1cc6132335b3e501179104043",
        "size_in_bytes": 791928
      },
      {
        "_path": "bin/zstd",
        "path_type": "hardlink",
        "sha256": "830c1b0f6100ed84ff64d45b7f592f9fdf4546b1cc6132335b3e501179104043",
        "sha256_in_prefix": "830c1b0f6100ed84ff64d45b7f592f9fdf4546b1cc6132335b3e501179104043",
        "size_in_bytes": 791928
      },
      {
        "_path": "bin/zstdcat",
        "path_type": "softlink",
        "sha256": "830c1b0f6100ed84ff64d45b7f592f9fdf4546b1cc6132335b3e501179104043",
        "size_in_bytes": 791928
      },
      {
        "_path": "bin/zstdmt",
        "path_type": "softlink",
        "sha256": "830c1b0f6100ed84ff64d45b7f592f9fdf4546b1cc6132335b3e501179104043",
        "size_in_bytes": 791928
      },
      {
        "_path": "include/cover.h",
        "path_type": "hardlink",
        "sha256": "e175146e00ed06d3f2dfa6e18f86a19318f5005b20075eba72cf5d36fd68cd1d",
        "sha256_in_prefix": "e175146e00ed06d3f2dfa6e18f86a19318f5005b20075eba72cf5d36fd68cd1d",
        "size_in_bytes": 2333
      },
      {
        "_path": "include/zbuff.h",
        "path_type": "hardlink",
        "sha256": "e1aa0c84dd40cfcf5a23e8dea5c376f9da626eeed902667fe0f8cbceb673840f",
        "sha256_in_prefix": "e1aa0c84dd40cfcf5a23e8dea5c376f9da626eeed902667fe0f8cbceb673840f",
        "size_in_bytes": 11474
      },
      {
        "_path": "include/zdict.h",
        "path_type": "hardlink",
        "sha256": "4d5b6b6f3ea51070e20732cb1dc9764e7722af89cd7ef68b067e4b6c809ab36d",
        "sha256_in_prefix": "4d5b6b6f3ea51070e20732cb1dc9764e7722af89cd7ef68b067e4b6c809ab36d",
        "size_in_bytes": 15671
      },
      {
        "_path": "include/zstd.h",
        "path_type": "hardlink",
        "sha256": "ec3c9e7e33afec8363c6c19c643b4c31f5c42d1d36b2f74347e3f28ecac5b8ae",
        "sha256_in_prefix": "ec3c9e7e33afec8363c6c19c643b4c31f5c42d1d36b2f74347e3f28ecac5b8ae",
        "size_in_bytes": 94270
      },
      {
        "_path": "include/zstd_errors.h",
        "path_type": "hardlink",
        "sha256": "3b60bd79d4f4abc1bf9648a4da8282f782dd5caf2789aea742f1f4d4ef250ff9",
        "sha256_in_prefix": "3b60bd79d4f4abc1bf9648a4da8282f782dd5caf2789aea742f1f4d4ef250ff9",
        "size_in_bytes": 3715
      },
      {
        "_path": "lib/libzstd.a",
        "path_type": "hardlink",
        "sha256": "5b8e5bd96c6fdf9ae1ab2322af4eec8c468aae0d4e3e3c340164af3267a43972",
        "sha256_in_prefix": "5b8e5bd96c6fdf9ae1ab2322af4eec8c468aae0d4e3e3c340164af3267a43972",
        "size_in_bytes": 780628
      },
      {
        "_path": "lib/libzstd.so",
        "path_type": "softlink",
        "sha256": "308229fdced6609bfd9b12422e5c0939155deee508af8f6f33923825e99e9404",
        "size_in_bytes": 696896
      },
      {
        "_path": "lib/libzstd.so.1.3.7",
        "path_type": "hardlink",
        "sha256": "308229fdced6609bfd9b12422e5c0939155deee508af8f6f33923825e99e9404",
        "sha256_in_prefix": "308229fdced6609bfd9b12422e5c0939155deee508af8f6f33923825e99e9404",
        "size_in_bytes": 696896
      },
      {
        "_path": "lib/pkgconfig/libzstd.pc",
        "file_mode": "text",
        "path_type": "hardlink",
        "prefix_placeholder": "/opt/anaconda1anaconda2anaconda3",
        "sha256": "874fb4f7d9f6d528876d3bf997d059beef11b86e30a39b8c947381fe4c61ead5",
        "sha256_in_prefix": "fe5a690f4f7ede61dcb0bf4e250782f36ae518d721275688bf16cd3c0f3a97c6",
        "size_in_bytes": 467
      },
      {
        "_path": "share/man/man1/unzstd.1",
        "path_type": "softlink",
        "sha256": "c679a55c1298f5ff25b81f49ed329d975af3651738baef528261a02304130474",
        "size_in_bytes": 21256
      },
      {
        "_path": "share/man/man1/zstd.1",
        "path_type": "hardlink",
        "sha256": "c679a55c1298f5ff25b81f49ed329d975af3651738baef528261a02304130474",
        "sha256_in_prefix": "c679a55c1298f5ff25b81f49ed329d975af3651738baef528261a02304130474",
        "size_in_bytes": 21256
      },
      {
        "_path": "share/man/man1/zstdcat.1",
        "path_type": "softlink",
        "sha256": "c679a55c1298f5ff25b81f49ed329d975af3651738baef528261a02304130474",
        "size_in_bytes": 21256
      },
      {
        "_path": "share/man/man1/zstdgrep.1",
        "path_type": "hardlink",
        "sha256": "bd0c976ab25585be2cc0e210cc95c96f4e387f5b987ab8610f62d91904d8e3b5",
        "sha256_in_prefix": "bd0c976ab25585be2cc0e210cc95c96f4e387f5b987ab8610f62d91904d8e3b5",
        "size_in_bytes": 783
      },
      {
        "_path": "share/man/man1/zstdless.1",
        "path_type": "hardlink",
        "sha256": "580a97f5157f94555b15f08d0e26ca59c68ccb6041d8e30745cfbeff8d464d7b",
        "sha256_in_prefix": "580a97f5157f94555b15f08d0e26ca59c68ccb6041d8e30745cfbeff8d464d7b",
        "size_in_bytes": 382
      }
    ],
    "paths_version": 1
  },
  "platform": "linux",
  "requested_spec": "defaults/linux-64::zstd==1.3.7=h0b5b093_0",
  "sha256": "8b676d98d30542a7ee550ee3b5f0cab6d5eb012d125dcc4b985eaf66d95d1e90",
  "size": 410326,
  "subdir": "linux-64",
  "timestamp": 1541459808645,
  "track_features": "",
  "url": "https://repo.anaconda.com/pkgs/main/linux-64/zstd-1.3.7-h0b5b093_0.conda",
  "version": "1.3.7"
}